%YAML 1.1
%TAG !u! tag:unity3d.com,2011:
--- !u!114 &11400000
MonoBehaviour:
  m_ObjectHideFlags: 0
  m_CorrespondingSourceObject: {fileID: 0}
  m_PrefabInternal: {fileID: 0}
  m_GameObject: {fileID: 0}
  m_Enabled: 1
  m_EditorHideFlags: 0
  m_Script: {fileID: 11500000, guid: 9d1514134bc4fbd41bb739b1b9a49231, type: 3}
  m_Name: Plataforms
  m_EditorClassIdentifier: 
  m_DefaultSprite: {fileID: 21300002, guid: 3b4a23a4dd0f25145b26a0a386cc3cea, type: 3}
  m_DefaultColliderType: 1
  m_TilingRules:
  - m_Neighbors: 0200000002000000000000000200000001000000000000000100000001000000
    m_Sprites:
    - {fileID: 21300000, guid: 3b4a23a4dd0f25145b26a0a386cc3cea, type: 3}
    m_AnimationSpeed: 1
    m_PerlinScale: 0.5
    m_RuleTransform: 2
    m_Output: 0
    m_ColliderType: 1
    m_RandomTransform: 0
  - m_Neighbors: 0000000001000000000000000200000001000000000000000100000000000000
    m_Sprites:
    - {fileID: 21300016, guid: 3b4a23a4dd0f25145b26a0a386cc3cea, type: 3}
    m_AnimationSpeed: 1
    m_PerlinScale: 0.5
    m_RuleTransform: 2
    m_Output: 0
    m_ColliderType: 1
    m_RandomTransform: 0
  - m_Neighbors: 0000000001000000000000000200000001000000000000000200000000000000
    m_Sprites:
    - {fileID: 21300030, guid: 3b4a23a4dd0f25145b26a0a386cc3cea, type: 3}
    m_AnimationSpeed: 1
    m_PerlinScale: 0.5
    m_RuleTransform: 2
    m_Output: 0
    m_ColliderType: 1
    m_RandomTransform: 0
  - m_Neighbors: 0000000001000000000000000100000001000000000000000200000000000000
    m_Sprites:
    - {fileID: 21300032, guid: 3b4a23a4dd0f25145b26a0a386cc3cea, type: 3}
    m_AnimationSpeed: 1
    m_PerlinScale: 0.5
    m_RuleTransform: 0
    m_Output: 0
    m_ColliderType: 1
    m_RandomTransform: 0
  - m_Neighbors: 0100000001000000010000000100000001000000010000000100000001000000
    m_Sprites:
    - {fileID: 21300018, guid: 3b4a23a4dd0f25145b26a0a386cc3cea, type: 3}
    m_AnimationSpeed: 1
    m_PerlinScale: 0.5
    m_RuleTransform: 0
    m_Output: 0
    m_ColliderType: 1
    m_RandomTransform: 0
  - m_Neighbors: 0000000002000000000000000200000002000000000000000100000000000000
    m_Sprites:
    - {fileID: 21300006, guid: 3b4a23a4dd0f25145b26a0a386cc3cea, type: 3}
    m_AnimationSpeed: 1
    m_PerlinScale: 0.5
    m_RuleTransform: 0
    m_Output: 0
    m_ColliderType: 1
    m_RandomTransform: 0
  - m_Neighbors: 0000000001000000000000000200000002000000000000000100000000000000
    m_Sprites:
    - {fileID: 21300062, guid: 3b4a23a4dd0f25145b26a0a386cc3cea, type: 3}
    m_AnimationSpeed: 1
    m_PerlinScale: 0.5
    m_RuleTransform: 0
    m_Output: 0
    m_ColliderType: 1
    m_RandomTransform: 0
  - m_Neighbors: 0000000001000000000000000200000002000000000000000200000000000000
    m_Sprites:
    - {fileID: 21300064, guid: 3b4a23a4dd0f25145b26a0a386cc3cea, type: 3}
    m_AnimationSpeed: 1
    m_PerlinScale: 0.5
    m_RuleTransform: 0
    m_Output: 0
    m_ColliderType: 1
    m_RandomTransform: 0
  - m_Neighbors: 0000000002000000000000000200000001000000000000000200000000000000
    m_Sprites:
    - {fileID: 21300044, guid: 3b4a23a4dd0f25145b26a0a386cc3cea, type: 3}
    m_AnimationSpeed: 1
    m_PerlinScale: 0.5
    m_RuleTransform: 0
    m_Output: 0
    m_ColliderType: 1
    m_RandomTransform: 0
  - m_Neighbors: 0000000002000000000000000100000001000000000000000200000000000000
    m_Sprites:
    - {fileID: 21300066, guid: 3b4a23a4dd0f25145b26a0a386cc3cea, type: 3}
    m_AnimationSpeed: 1
    m_PerlinScale: 0.5
    m_RuleTransform: 0
    m_Output: 0
    m_ColliderType: 1
    m_RandomTransform: 0
  - m_Neighbors: 0000000002000000000000000100000002000000000000000200000000000000
    m_Sprites:
    - {fileID: 21300068, guid: 3b4a23a4dd0f25145b26a0a386cc3cea, type: 3}
    m_AnimationSpeed: 1
    m_PerlinScale: 0.5
    m_RuleTransform: 0
    m_Output: 0
    m_ColliderType: 1
    m_RandomTransform: 0
  - m_Neighbors: 0000000002000000000000000200000002000000000000000200000000000000
    m_Sprites:
    - {fileID: 21300046, guid: 3b4a23a4dd0f25145b26a0a386cc3cea, type: 3}
    m_AnimationSpeed: 1
    m_PerlinScale: 0.5
    m_RuleTransform: 0
    m_Output: 0
    m_ColliderType: 1
    m_RandomTransform: 0
